^C:\USERS\500158985\SOURCE\REPOS\FUNCTIONSDEMO\FUNCTIONSDEMO\DEBUG\MAIN.OBJ
C:\USERS\500158985\SOURCE\REPOS\FUNCTIONSDEMO\DEBUG\FUNCTIONSDEMO.EXE
C:\USERS\500158985\SOURCE\REPOS\FUNCTIONSDEMO\DEBUG\FUNCTIONSDEMO.ILK
C:\USERS\500158985\SOURCE\REPOS\FUNCTIONSDEMO\DEBUG\FUNCTIONSDEMO.PDB
